{
  "name": "monkygames-nvidia",
  "version": "0.6.2",
  "author": "monkygames",
  "summary": "Manages NVIDIA proprietary drivers",
  "license": "GPL-3.0-or-later",
  "source": "https://bitbucket.org/monkygames/puppet-nvidia",
  "project_page": "https://bitbucket.org/monkygames/puppet-nvidia",
  "issues_url": "https://bitbucket.org/monkygames/puppet-nvidia/issues",
  "dependencies": [
    {
      "name": "puppetlabs-apt",
      "version_requirement": ">= 9.0.0 < 10.0.0"
    },
    {
      "name": "puppetlabs-concat",
      "version_requirement": ">= 7.0.0 < 8.0.0"
    },
    {
      "name": "puppetlabs-stdlib",
      "version_requirement": ">= 8.0.0 < 9.0.0"
    },
    {
      "name": "puppet-systemd",
      "version_requirement": ">= 3.0.0 < 4.0.0"
    }
  ],
  "operatingsystem_support": [
    {
      "operatingsystem": "Ubuntu",
      "operatingsystemrelease": [
        "18.04",
        "20.04",
        "21.04",
        "21.10",
        "22.04"
      ]
    }
  ],
  "requirements": [
    {
      "name": "puppet",
      "version_requirement": ">= 6.21.0 < 8.0.0"
    }
  ],
  "pdk-version": "2.5.0",
  "template-url": "pdk-default#2.5.0",
  "template-ref": "tags/2.5.0-0-g369d483"
}
